{"classes":[

    {"type_name":"初一语文","type_id":"7年级语文"},
    {"type_name":"初一数学","type_id":"7年级数学"},
    {"type_name":"初一英语","type_id":"7年级英语"},
    {"type_name":"初一历史","type_id":"7年级历史"},
    {"type_name":"初一地理","type_id":"7年级地理"},
    {"type_name":"初一生物","type_id":"7年级生物"},
    {"type_name":"初一物理","type_id":"7年级物理"},
    {"type_name":"初一化学","type_id":"7年级化学"},
    {"type_name":"初一辅导","type_id":"7年级辅导课程"},
    {"type_name":"初二语文","type_id":"8年级语文"},
    {"type_name":"初二数学","type_id":"8年级数学"},
    {"type_name":"初二英语","type_id":"8年级英语"},
    {"type_name":"初二历史","type_id":"8年级历史"},
    {"type_name":"初二地理","type_id":"8年级地理"},
    {"type_name":"初二生物","type_id":"8年级生物"},
    {"type_name":"初二物理","type_id":"8年级物理"},
    {"type_name":"初二化学","type_id":"8年级化学"},
    {"type_name":"初二辅导","type_id":"8年级辅导课程"},
    {"type_name":"初三语文","type_id":"9年级语文"},
    {"type_name":"初三数学","type_id":"9年级数学"},
    {"type_name":"初三英语","type_id":"9年级英语"},
    {"type_name":"初三历史","type_id":"9年级历史"},
    {"type_name":"初三地理","type_id":"9年级地理"},
    {"type_name":"初三生物","type_id":"9年级生物"},
    {"type_name":"初三物理","type_id":"9年级物理"},
    {"type_name":"初三化学","type_id":"9年级化学"},
    {"type_name":"初三政治","type_id":"9年级政治"},
    {"type_name":"初三辅导","type_id":"9年级辅导课程"}
 ],
    
"filter":{

"7年级语文":[
{"key":"tid","name":"分类","value":[
{"n":"全部","v":"0"},{"n":"沪教版","v":"沪教版7年级语文"},{"n":"人教版","v":"人教版7年级语文"},{"n":"北师大版","v":"北师大版7年级语文"},{"n":"苏教版","v":"苏教版7年级语文"}]},{"key":"duration","name":"时长","value":[
{"n":"全部","v":"0"},{"n":"60分钟以上","v":"4"},{"n":"30~60分钟","v":"3"},{"n":"10~30分钟","v":"2"},{"n":"10分钟以下","v":"1"}]}],
"7年级英语":[
{"key":"tid","name":"分类","value":[
{"n":"全部","v":"0"},{"n":"沪教版","v":"沪教版7年级英语"},{"n":"人教版","v":"人教版7年级英语"},{"n":"北师大版","v":"北师大版7年级英语"},{"n":"苏教版","v":"苏教版7年级英语"}]},{"key":"duration","name":"时长","value":[
{"n":"全部","v":"0"},{"n":"60分钟以上","v":"4"},{"n":"30~60分钟","v":"3"},{"n":"10~30分钟","v":"2"},{"n":"10分钟以下","v":"1"}]}],
"7年级数学":[
{"key":"tid","name":"分类","value":[
{"n":"全部","v":"0"},{"n":"沪教版","v":"沪教版7年级数学"},{"n":"人教版","v":"人教版7年级数学"},{"n":"北师大版","v":"北师大版7年级数学"},{"n":"苏教版","v":"苏教版7年级数学"}]},{"key":"duration","name":"时长","value":[
{"n":"全部","v":"0"},{"n":"60分钟以上","v":"4"},{"n":"30~60分钟","v":"3"},{"n":"10~30分钟","v":"2"},{"n":"10分钟以下","v":"1"}]}],
"7年级化学":[
{"key":"tid","name":"分类","value":[
{"n":"全部","v":"0"},{"n":"沪教版","v":"沪教版7年级化学"},{"n":"人教版","v":"人教版7年级化学"},{"n":"北师大版","v":"北师大版7年级化学"},{"n":"苏教版","v":"苏教版7年级化学"}]},{"key":"duration","name":"时长","value":[
{"n":"全部","v":"0"},{"n":"60分钟以上","v":"4"},{"n":"30~60分钟","v":"3"},{"n":"10~30分钟","v":"2"},{"n":"10分钟以下","v":"1"}]}],
"7年级物理":[
{"key":"tid","name":"分类","value":[
{"n":"全部","v":"0"},{"n":"沪教版","v":"沪教版7年级物理"},{"n":"人教版","v":"人教版7年级物理"},{"n":"北师大版","v":"北师大版7年级物理"},{"n":"苏教版","v":"苏教版7年级物理"}]},{"key":"duration","name":"时长","value":[
{"n":"全部","v":"0"},{"n":"60分钟以上","v":"4"},{"n":"30~60分钟","v":"3"},{"n":"10~30分钟","v":"2"},{"n":"10分钟以下","v":"1"}]}],
"7年级生物":[
{"key":"tid","name":"分类","value":[
{"n":"全部","v":"0"},{"n":"沪教版","v":"沪教版7年级生物"},{"n":"人教版","v":"人教版7年级生物"},{"n":"北师大版","v":"北师大版7年级生物"},{"n":"苏教版","v":"苏教版7年级生物"}]},{"key":"duration","name":"时长","value":[
{"n":"全部","v":"0"},{"n":"60分钟以上","v":"4"},{"n":"30~60分钟","v":"3"},{"n":"10~30分钟","v":"2"},{"n":"10分钟以下","v":"1"}]}],
"7年级历史":[
{"key":"tid","name":"分类","value":[
{"n":"全部","v":"0"},{"n":"沪教版","v":"沪教版7年级历史"},{"n":"人教版","v":"人教版7年级历史"},{"n":"北师大版","v":"北师大版7年级历史"},{"n":"苏教版","v":"苏教版7年级历史"}]},{"key":"duration","name":"时长","value":[
{"n":"全部","v":"0"},{"n":"60分钟以上","v":"4"},{"n":"30~60分钟","v":"3"},{"n":"10~30分钟","v":"2"},{"n":"10分钟以下","v":"1"}]}],
"7年级辅导课程":[
{"key":"tid","name":"分类","value":[
{"n":"全部","v":"0"},{"n":"沪教版","v":"沪教版7年级辅导课程"},{"n":"人教版","v":"人教版7年级辅导课程"},{"n":"北师大版","v":"北师大版7年级辅导课程"},{"n":"苏教版","v":"苏教版7年级辅导课程"}]},{"key":"duration","name":"时长","value":[
{"n":"全部","v":"0"},{"n":"60分钟以上","v":"4"},{"n":"30~60分钟","v":"3"},{"n":"10~30分钟","v":"2"},{"n":"10分钟以下","v":"1"}]}],
"8年级语文":[
{"key":"tid","name":"分类","value":[
{"n":"全部","v":"0"},{"n":"沪教版","v":"沪教版8年级语文"},{"n":"人教版","v":"人教版8年级语文"},{"n":"北师大版","v":"北师大版8年级语文"},{"n":"苏教版","v":"苏教版8年级语文"}]},{"key":"duration","name":"时长","value":[
{"n":"全部","v":"0"},{"n":"60分钟以上","v":"4"},{"n":"30~60分钟","v":"3"},{"n":"10~30分钟","v":"2"},{"n":"10分钟以下","v":"1"}]}],
"8年级英语":[
{"key":"tid","name":"分类","value":[
{"n":"全部","v":"0"},{"n":"沪教版","v":"沪教版8年级英语"},{"n":"人教版","v":"人教版8年级英语"},{"n":"北师大版","v":"北师大版8年级英语"},{"n":"苏教版","v":"苏教版8年级英语"}]},{"key":"duration","name":"时长","value":[
{"n":"全部","v":"0"},{"n":"60分钟以上","v":"4"},{"n":"30~60分钟","v":"3"},{"n":"10~30分钟","v":"2"},{"n":"10分钟以下","v":"1"}]}],
"8年级数学":[
{"key":"tid","name":"分类","value":[
{"n":"全部","v":"0"},{"n":"沪教版","v":"沪教版8年级数学"},{"n":"人教版","v":"人教版8年级数学"},{"n":"北师大版","v":"北师大版8年级数学"},{"n":"苏教版","v":"苏教版8年级数学"}]},{"key":"duration","name":"时长","value":[
{"n":"全部","v":"0"},{"n":"60分钟以上","v":"4"},{"n":"30~60分钟","v":"3"},{"n":"10~30分钟","v":"2"},{"n":"10分钟以下","v":"1"}]}],
"8年级化学":[
{"key":"tid","name":"分类","value":[
{"n":"全部","v":"0"},{"n":"沪教版","v":"沪教版8年级化学"},{"n":"人教版","v":"人教版8年级化学"},{"n":"北师大版","v":"北师大版8年级化学"},{"n":"苏教版","v":"苏教版8年级化学"}]},{"key":"duration","name":"时长","value":[
{"n":"全部","v":"0"},{"n":"60分钟以上","v":"4"},{"n":"30~60分钟","v":"3"},{"n":"10~30分钟","v":"2"},{"n":"10分钟以下","v":"1"}]}],
"8年级物理":[
{"key":"tid","name":"分类","value":[
{"n":"全部","v":"0"},{"n":"沪教版","v":"沪教版8年级物理"},{"n":"人教版","v":"人教版8年级物理"},{"n":"北师大版","v":"北师大版8年级物理"},{"n":"苏教版","v":"苏教版8年级物理"}]},{"key":"duration","name":"时长","value":[
{"n":"全部","v":"0"},{"n":"60分钟以上","v":"4"},{"n":"30~60分钟","v":"3"},{"n":"10~30分钟","v":"2"},{"n":"10分钟以下","v":"1"}]}],
"8年级生物":[
{"key":"tid","name":"分类","value":[
{"n":"全部","v":"0"},{"n":"沪教版","v":"沪教版8年级生物"},{"n":"人教版","v":"人教版8年级生物"},{"n":"北师大版","v":"北师大版8年级生物"},{"n":"苏教版","v":"苏教版8年级生物"}]},{"key":"duration","name":"时长","value":[
{"n":"全部","v":"0"},{"n":"60分钟以上","v":"4"},{"n":"30~60分钟","v":"3"},{"n":"10~30分钟","v":"2"},{"n":"10分钟以下","v":"1"}]}],
"8年级历史":[
{"key":"tid","name":"分类","value":[
{"n":"全部","v":"0"},{"n":"沪教版","v":"沪教版8年级历史"},{"n":"人教版","v":"人教版8年级历史"},{"n":"北师大版","v":"北师大版8年级历史"},{"n":"苏教版","v":"苏教版8年级历史"}]},{"key":"duration","name":"时长","value":[
{"n":"全部","v":"0"},{"n":"60分钟以上","v":"4"},{"n":"30~60分钟","v":"3"},{"n":"10~30分钟","v":"2"},{"n":"10分钟以下","v":"1"}]}],
"8年级辅导课程":[
{"key":"tid","name":"分类","value":[
{"n":"全部","v":"0"},{"n":"沪教版","v":"沪教版8年级辅导课程"},{"n":"人教版","v":"人教版8年级辅导课程"},{"n":"北师大版","v":"北师大版8年级辅导课程"},{"n":"苏教版","v":"苏教版8年级辅导课程"}]},{"key":"duration","name":"时长","value":[
{"n":"全部","v":"0"},{"n":"60分钟以上","v":"4"},{"n":"30~60分钟","v":"3"},{"n":"10~30分钟","v":"2"},{"n":"10分钟以下","v":"1"}]}],
"9年级语文":[
{"key":"tid","name":"分类","value":[
{"n":"全部","v":"0"},{"n":"沪教版","v":"沪教版9年级语文"},{"n":"人教版","v":"人教版9年级语文"},{"n":"北师大版","v":"北师大版9年级语文"},{"n":"苏教版","v":"苏教版9年级语文"}]},{"key":"duration","name":"时长","value":[
{"n":"全部","v":"0"},{"n":"60分钟以上","v":"4"},{"n":"30~60分钟","v":"3"},{"n":"10~30分钟","v":"2"},{"n":"10分钟以下","v":"1"}]}],
"9年级英语":[
{"key":"tid","name":"分类","value":[
{"n":"全部","v":"0"},{"n":"沪教版","v":"沪教版9年级英语"},{"n":"人教版","v":"人教版9年级英语"},{"n":"北师大版","v":"北师大版9年级英语"},{"n":"苏教版","v":"苏教版9年级英语"}]},{"key":"duration","name":"时长","value":[
{"n":"全部","v":"0"},{"n":"60分钟以上","v":"4"},{"n":"30~60分钟","v":"3"},{"n":"10~30分钟","v":"2"},{"n":"10分钟以下","v":"1"}]}],
"9年级数学":[
{"key":"tid","name":"分类","value":[
{"n":"全部","v":"0"},{"n":"沪教版","v":"沪教版9年级数学"},{"n":"人教版","v":"人教版9年级数学"},{"n":"北师大版","v":"北师大版9年级数学"},{"n":"苏教版","v":"苏教版9年级数学"}]},{"key":"duration","name":"时长","value":[
{"n":"全部","v":"0"},{"n":"60分钟以上","v":"4"},{"n":"30~60分钟","v":"3"},{"n":"10~30分钟","v":"2"},{"n":"10分钟以下","v":"1"}]}],
"9年级化学":[
{"key":"tid","name":"分类","value":[
{"n":"全部","v":"0"},{"n":"沪教版","v":"沪教版9年级化学"},{"n":"人教版","v":"人教版9年级化学"},{"n":"北师大版","v":"北师大版9年级化学"},{"n":"苏教版","v":"苏教版9年级化学"}]},{"key":"duration","name":"时长","value":[
{"n":"全部","v":"0"},{"n":"60分钟以上","v":"4"},{"n":"30~60分钟","v":"3"},{"n":"10~30分钟","v":"2"},{"n":"10分钟以下","v":"1"}]}],
"9年级物理":[
{"key":"tid","name":"分类","value":[
{"n":"全部","v":"0"},{"n":"沪教版","v":"沪教版9年级物理"},{"n":"人教版","v":"人教版9年级物理"},{"n":"北师大版","v":"北师大版9年级物理"},{"n":"苏教版","v":"苏教版9年级物理"}]},{"key":"duration","name":"时长","value":[
{"n":"全部","v":"0"},{"n":"60分钟以上","v":"4"},{"n":"30~60分钟","v":"3"},{"n":"10~30分钟","v":"2"},{"n":"10分钟以下","v":"1"}]}],
"9年级生物":[
{"key":"tid","name":"分类","value":[
{"n":"全部","v":"0"},{"n":"沪教版","v":"沪教版9年级生物"},{"n":"人教版","v":"人教版9年级生物"},{"n":"北师大版","v":"北师大版9年级生物"},{"n":"苏教版","v":"苏教版9年级生物"}]},{"key":"duration","name":"时长","value":[
{"n":"全部","v":"0"},{"n":"60分钟以上","v":"4"},{"n":"30~60分钟","v":"3"},{"n":"10~30分钟","v":"2"},{"n":"10分钟以下","v":"1"}]}],
"9年级历史":[
{"key":"tid","name":"分类","value":[
{"n":"全部","v":"0"},{"n":"沪教版","v":"沪教版9年级历史"},{"n":"人教版","v":"人教版9年级历史"},{"n":"北师大版","v":"北师大版9年级历史"},{"n":"苏教版","v":"苏教版9年级历史"}]},{"key":"duration","name":"时长","value":[
{"n":"全部","v":"0"},{"n":"60分钟以上","v":"4"},{"n":"30~60分钟","v":"3"},{"n":"10~30分钟","v":"2"},{"n":"10分钟以下","v":"1"}]}],

"9年级政治":[
{"key":"tid","name":"分类","value":[
{"n":"全部","v":"0"},{"n":"沪教版","v":"沪教版9年级政治"},{"n":"人教版","v":"人教版9年级政治"},{"n":"北师大版","v":"北师大版9年级政治"},{"n":"苏教版","v":"苏教版9年级政治"}]},{"key":"duration","name":"时长","value":[
{"n":"全部","v":"0"},{"n":"60分钟以上","v":"4"},{"n":"30~60分钟","v":"3"},{"n":"10~30分钟","v":"2"},{"n":"10分钟以下","v":"1"}]}],
"9年级辅导课程":[
{"key":"tid","name":"分类","value":[
{"n":"全部","v":"0"},{"n":"沪教版","v":"沪教版9年级辅导课程"},{"n":"人教版","v":"人教版9年级辅导课程"},{"n":"北师大版","v":"北师大版6年级辅导课程"},{"n":"苏教版","v":"苏教版9年级辅导课程"}]},{"key":"duration","name":"时长","value":[
{"n":"全部","v":"0"},{"n":"60分钟以上","v":"4"},{"n":"30~60分钟","v":"3"},{"n":"10~30分钟","v":"2"},{"n":"10分钟以下","v":"1"}]}] 
 }}